%% DO NOT EDIT this file manually; it is automatically
%% generated from LSR http://lsr.di.unimi.it
%% Make any changes in LSR itself, or in Documentation/snippets/new/ ,
%% and then run scripts/auxiliar/makelsr.py
%%
%% This file is in the public domain.
\version "2.23.1"

\header {
  lsrtags = "pitches, vocal-music"

  texidoc = "
Adding the @code{Ambitus_engraver} to the @code{Staff} context creates
a single ambitus per staff, even in the case of staves with multiple
voices.

"
  doctitle = "Ambitus with multiple voices"
} % begin verbatim

\new Staff \with {
  \consists "Ambitus_engraver"
  }
<<
  \new Voice \relative c'' {
    \voiceOne
    c4 a d e
    f1
  }
  \new Voice \relative c' {
    \voiceTwo
    es4 f g as
    b1
  }
>>
