%% DO NOT EDIT this file manually; it is automatically
%% generated from LSR http://lsr.di.unimi.it
%% Make any changes in LSR itself, or in Documentation/snippets/new/ ,
%% and then run scripts/auxiliar/makelsr.py
%%
%% This file is in the public domain.
\version "2.23.1"

\header {
  lsrtags = "expressive-marks, really-simple, text"

  texidoc = "
Some dynamics may involve text indications (such as @qq{più forte} or
@qq{piano subito}). These can be produced using a @code{\\markup} block.

"
  doctitle = "Combining dynamics with markup texts"
} % begin verbatim

piuF = \markup { \italic più \dynamic f }

\layout { ragged-right = ##f }

\relative c'' {
  c2\f c-\piuF
}
