%% DO NOT EDIT this file manually; it is automatically
%% generated from LSR http://lsr.di.unimi.it
%% Make any changes in LSR itself, or in Documentation/snippets/new/ ,
%% and then run scripts/auxiliar/makelsr.py
%%
%% This file is in the public domain.
\version "2.23.1"

\header {
  lsrtags = "devel, scheme-language, tweaks-and-overrides"

  texidoc = "
When working with grob callbacks, it can be helpful to understand a
grob's ancestry.  Most grobs have parents which influence the
positioning of the grob.  X- and Y-parents influence the horizontal and
vertical positions for the grob, respectively.  Additionally, each
parent may have parents of its own.

Unfortunately, there are several aspects of a grob's ancestry that can
lead to confusion:

@itemize
@item
The types of parents a grob has may depend on context.
@item
For some grobs, the X- and Y-parents are the same.
@item
A particular @emph{ancestor} may be related to a grob in multiple ways.
@item
The concept of @emph{generations} is misleading.
@end itemize

For example, the @code{System} grob can be both parent (on the Y-side)
and grandparent (twice on the X-side) to a @code{VerticalAlignment}
grob.

This macro prints (to the console) a textual representation of a grob's
ancestry.

When called this way:

@verbatim
{ \\once \\override NoteHead.before-line-breaking = #display-ancestry c }
@end verbatim

The following output is generated:

@verbatim
NoteHead
X,Y: NoteColumn
     X: PaperColumn
        X,Y: System
     Y: VerticalAxisGroup
        X: NonMusicalPaperColumn
           X,Y: System
        Y: VerticalAlignment
           X: NonMusicalPaperColumn
              X,Y: System
           Y: System
@end verbatim

"
  doctitle = "Displaying grob ancestry"
} % begin verbatim

%% http://lsr.di.unimi.it/LSR/Item?id=622
%% see also http://www.lilypond.org/doc/v2.18/Documentation/snippets/tweaks-and-overrides#tweaks-and-overrides-displaying-grob-ancestry

%% Remark:
%% grob::name is in the source since 2.19.x could be deleted during next LSR-upgrade
#(define (grob::name grob)
  (assq-ref (ly:grob-property grob 'meta) 'name))

#(define (get-ancestry grob)
  (if (not (null? (ly:grob-parent grob X)))
      (list (grob::name grob)
            (get-ancestry (ly:grob-parent grob X))
            (get-ancestry (ly:grob-parent grob Y)))
      (grob::name grob)))

#(define (format-ancestry lst padding)
   (string-append
    (symbol->string (car lst))
    "\n"
    (let ((X-ancestry
           (if (list? (cadr lst))
               (format-ancestry (cadr lst) (+ padding 3))
               (symbol->string (cadr lst))))
          (Y-ancestry
           (if (list? (caddr lst))
               (format-ancestry (caddr lst) (+ padding 3))
               (symbol->string (caddr lst)))))
      (if (equal? X-ancestry Y-ancestry)
          (string-append
           (format #f "~&")
           (make-string padding #\space)
           "X,Y: "
           (if (list? (cadr lst))
               (format-ancestry (cadr lst) (+ padding 5))
               (symbol->string (cadr lst))))
          (string-append
           (format #f "~&")
           (make-string padding #\space)
           "X: " X-ancestry
           "\n"
           (make-string padding #\space)
           "Y: " Y-ancestry
           (format #f "~&"))))
    (format #f "~&")))

#(define (display-ancestry grob)
   (format (current-error-port)
      "~3&~a~2%~a~&"
      (make-string 36 #\-)
      (if (ly:grob? grob)
          (format-ancestry (get-ancestry grob) 0)
          (format #f "~a is not a grob" grob))))

\relative c' {
  \once \override NoteHead.before-line-breaking = #display-ancestry
  f4
  \once \override Accidental.before-line-breaking = #display-ancestry
  \once \override Arpeggio.before-line-breaking = #display-ancestry
  <f as c>4\arpeggio
}
