%% DO NOT EDIT this file manually; it is automatically
%% generated from LSR http://lsr.di.unimi.it
%% Make any changes in LSR itself, or in Documentation/snippets/new/ ,
%% and then run scripts/auxiliar/makelsr.py
%%
%% This file is in the public domain.
\version "2.23.1"

\header {
  lsrtags = "automatic-notation, pitches"

  texidoc = "
In accordance with traditional typesetting rules, a natural sign is
printed before a sharp or flat if a previous double sharp or flat on
the same note is canceled.  To change this behavior to contemporary
practice, set the @code{extraNatural} property to @code{f} in the
@code{Staff} context.

"
  doctitle = "Preventing extra naturals from being automatically added"
} % begin verbatim

\relative c'' {
  aeses4 aes ais a
  \set Staff.extraNatural = ##f
  aeses4 aes ais a
}
