%% DO NOT EDIT this file manually; it is automatically
%% generated from LSR http://lsr.di.unimi.it
%% Make any changes in LSR itself, or in Documentation/snippets/new/ ,
%% and then run scripts/auxiliar/makelsr.py
%%
%% This file is in the public domain.
\version "2.23.1"

\header {
  lsrtags = "really-simple, rhythms, vocal-music"

  texidoc = "
Although @code{s} skips cannot be used in @code{\\lyricmode} (it is
taken to be a literal @qq{s}, not a space), double quotes (@code{\"\"})
or underscores (@code{_}) are available.

So for example:

"
  doctitle = "Skips in lyric mode (2)"
} % begin verbatim

<<
  \relative c'' { a4 b c d }
  \new Lyrics \lyricmode { a4 "" _ gap }
>>
