%% DO NOT EDIT this file manually; it is automatically
%% generated from LSR http://lsr.di.unimi.it
%% Make any changes in LSR itself, or in Documentation/snippets/new/ ,
%% and then run scripts/auxiliar/makelsr.py
%%
%% This file is in the public domain.
\version "2.23.1"

\header {
  lsrtags = "rhythms"

  texidoc = "
The slash through the stem found in acciaccaturas can be applied in
other situations.

"
  doctitle = "Using grace note slashes with normal heads"
} % begin verbatim

\relative c'' {
  \override Flag.stroke-style = #"grace"
  c8( d2) e8( f4)
}
